Name,WeightClassKg,Division,Sex,Best3SquatKg,Best3BenchKg,Best3DeadliftKg,TotalKg,Event,Equipment,Place
Jo Walker,52,Open,F,122.47,58.97,149.69,331.12,SBD,Single-ply,1
Tim Skattum,52,Open,M,95.25,56.7,106.59,258.55,SBD,Single-ply,2
Marc Morishige,60,Open,M,199.58,122.47,235.87,557.92,SBD,Single-ply,1
Yusuke Yahagi,60,Open,M,183.71,113.4,210.92,508.02,SBD,Single-ply,2
Larry Muth,60,Open,M,145.15,111.13,195.04,451.32,SBD,Single-ply,3
Dave Jamison,60,Open,M,,,,,SBD,Single-ply,DQ
Bill Wright,67.5,Open,M,238.14,131.54,238.14,607.81,SBD,Single-ply,1
T. Powell,67.5,Open,M,206.38,127.01,226.8,560.19,SBD,Single-ply,2
Terry Edwards,67.5,Open,M,181.44,154.22,208.65,544.31,SBD,Single-ply,3
Greg Parson,67.5,Open,M,188.24,142.88,208.65,539.78,SBD,Single-ply,4
Ken Kroll,67.5,Open,M,188.24,113.4,226.8,528.44,SBD,Single-ply,5
Jim Blair,67.5,Open,M,215.46,97.52,204.12,517.1,SBD,Single-ply,6
Mark Cleveland,67.5,Open,M,185.97,120.2,199.58,505.76,SBD,Single-ply,7
S. Stewart,67.5,Open,M,108.86,54.43,131.54,294.84,SBD,Single-ply,8
Bert Yamaoka,75,Open,M,256.28,149.69,263.08,669.05,SBD,Single-ply,1
Craig Harr,75,Open,M,256.28,138.35,254.01,648.64,SBD,Single-ply,2
Giorgio Usai,75,Open,M,244.94,145.15,242.67,632.76,SBD,Single-ply,3
Ron Claughton,75,Open,M,219.99,131.54,242.67,594.21,SBD,Single-ply,4
Tom D'Annunzio,75,Open,M,215.46,133.81,231.33,580.6,SBD,Single-ply,5
Shelton Louie,82.5,Open,M,263.08,167.83,267.62,698.53,SBD,Single-ply,1
Tod Becraft,82.5,Open,M,272.16,167.83,258.55,698.53,SBD,Single-ply,2
D. Olsen,82.5,Open,M,249.48,127.01,254.01,630.49,SBD,Single-ply,3
Rich Woods #1,90,Open,M,294.84,197.31,294.84,786.98,SBD,Single-ply,1
Ray Hetlage,90,Open,M,292.57,167.83,292.57,752.96,SBD,Single-ply,2
Gordon Hovies,90,Open,M,267.62,170.1,274.42,712.14,SBD,Single-ply,3
D. Hanchett,90,Open,M,265.35,174.63,265.35,705.34,SBD,Single-ply,4
Terry Simons,100,Open,M,317.52,235.87,292.57,845.95,SBD,Single-ply,1
Jurgan Johnson,100,Open,M,294.84,192.78,312.98,800.59,SBD,Single-ply,2
Rick Hibbard,100,Open,M,276.69,181.44,317.52,775.64,SBD,Single-ply,3
David Marshall,100,Open,M,281.23,185.97,308.44,775.64,SBD,Single-ply,4
Ted Quigg,100,Open,M,299.37,192.78,272.16,764.3,SBD,Single-ply,5
Mat Ellingson,100,Open,M,265.35,183.71,299.37,748.43,SBD,Single-ply,6
Scott Lowery,100,Open,M,65.77,174.63,111.13,351.53,SBD,Raw,7
Dave Atterholt,110,Open,M,342.46,213.19,351.53,907.19,SBD,Single-ply,1
Mel Williams,110,Open,M,294.84,183.71,308.44,786.98,SBD,Single-ply,4
Thaddeus Mercer,110,Open,M,276.69,217.72,315.25,809.66,SBD,Single-ply,2
Mike Magruder,110,Open,M,281.23,206.38,310.71,798.32,SBD,Single-ply,3
B. Morrison,110,Open,M,274.42,192.78,299.37,766.57,SBD,Single-ply,5
Grant Armour,110,Open,M,263.08,176.9,263.08,703.07,SBD,Single-ply,6
Dave Shaw,125,Open,M,365.14,229.06,353.8,948.01,SBD,Single-ply,1
Ray Woolley,125,Open,M,344.73,222.26,326.59,893.58,SBD,Single-ply,2
E. Anderson,125,Open,M,290.3,226.8,312.98,830.08,SBD,Single-ply,3
Fred Nordgren,125,Open,M,317.52,179.17,303.91,800.59,SBD,Single-ply,4
Richard Nowazek,125,Open,M,274.42,199.58,263.08,737.09,SBD,Single-ply,5
Dan Mosley,125,Open,M,260.82,215.46,254.01,730.28,SBD,Single-ply,6
Tom Lackey,125,Open,M,283.5,149.69,274.42,707.6,SBD,Single-ply,7
Andy Medak,125,Open,M,249.48,190.51,267.62,707.6,SBD,Single-ply,8
Calvin Bowles,125+,Open,M,290.3,195.04,340.19,825.54,SBD,Single-ply,1
Ken LaBeau,125+,Open,M,285.76,190.51,312.98,789.25,SBD,Single-ply,2
Bob Howington,125+,Open,M,263.08,117.93,303.91,684.93,SBD,Single-ply,3
Tim Skattum,52,Class II,M,95.25,56.7,106.59,258.55,SBD,Single-ply,1
Jessie Arellano,56,Class II,M,131.54,99.79,181.44,412.77,SBD,Single-ply,1
Tolman Bannister,56,Class II,M,145.15,77.11,145.15,367.41,SBD,Single-ply,2
Larry Muth,60,Class II,M,145.15,111.13,195.04,451.32,SBD,Single-ply,1
D. VanDerGriff,60,Class II,M,154.22,99.79,183.71,437.72,SBD,Single-ply,2
Juan Matias,60,Class II,M,149.69,108.86,172.37,430.91,SBD,Single-ply,3
A. Bannister,60,Class II,M,131.54,92.99,158.76,383.29,SBD,Single-ply,4
Terry Edwards,67.5,Class II,M,181.44,154.22,208.65,544.31,SBD,Single-ply,1
Greg Parson,67.5,Class II,M,188.24,142.88,208.65,539.78,SBD,Single-ply,2
Jim Blair,67.5,Class II,M,215.46,97.52,204.12,517.1,SBD,Single-ply,3
Mark Cleveland,67.5,Class II,M,185.97,120.2,199.58,505.76,SBD,Single-ply,4
G. Wise,67.5,Class II,M,158.76,111.13,213.19,483.08,SBD,Single-ply,5
P. Badasha,67.5,Class II,M,163.29,113.4,185.97,462.66,SBD,Single-ply,6
Paul Cook,67.5,Class II,M,163.29,99.79,181.44,444.52,SBD,Single-ply,7
Willie Jameson,67.5,Class II,M,172.37,88.45,174.63,435.45,SBD,Single-ply,8
T. Weller #2,67.5,Class II,M,147.42,122.47,165.56,435.45,SBD,Single-ply,9
B. Nichols,67.5,Class II,M,167.83,95.25,170.1,433.18,SBD,Single-ply,10
B. Gersztyn,67.5,Class II,M,158.76,108.86,158.76,426.38,SBD,Single-ply,11
J. Nevels,67.5,Class II,M,113.4,68.04,151.95,333.39,SBD,Single-ply,12
Craig Harr,75,Class II,M,256.28,138.35,254.01,648.64,SBD,Single-ply,1
Ron Claughton,75,Class II,M,219.99,131.54,242.67,594.21,SBD,Single-ply,2
Tom D'Annunzio,75,Class II,M,215.46,133.81,231.33,580.6,SBD,Single-ply,3
J. Addington,75,Class II,M,183.71,115.67,226.8,526.17,SBD,Single-ply,4
S. Ellingsen,75,Class II,M,190.51,131.54,197.31,519.36,SBD,Single-ply,5
Christopherson,75,Class II,M,181.44,108.86,204.12,494.42,SBD,Single-ply,7
J. Hickey,75,Class II,M,170.1,115.67,204.12,489.88,SBD,Single-ply,8
R. Aldridge,75,Class II,M,165.56,117.93,217.72,501.22,SBD,Single-ply,6
D. Haupt,75,Class II,M,163.29,113.4,199.58,476.27,SBD,Single-ply,9
T. Young,75,Class II,M,163.29,115.67,192.78,471.74,SBD,Single-ply,10
T. Fisher,75,Class II,M,142.88,117.93,185.97,446.79,SBD,Single-ply,11
Kenneth Griffin,75,Class II,M,124.74,120.2,183.71,428.65,SBD,Single-ply,12
W. Pierson,75,Class II,M,145.15,86.18,183.71,415.04,SBD,Single-ply,13
D. Doyle,75,Class II,M,,,,,SBD,Single-ply,DQ
R. Henshaw,75,Class II,M,188.24,127.01,,,SBD,Single-ply,DQ
Dave Obatech,82.5,Class II,M,215.46,136.08,290.3,641.83,SBD,Single-ply,1
Sam Fowler #6,82.5,Class II,M,242.67,136.08,260.82,639.57,SBD,Single-ply,2
D. Olsen,82.5,Class II,M,249.48,127.01,254.01,630.49,SBD,Single-ply,3
Ken Kinakin,82.5,Class II,M,233.6,142.88,244.94,621.42,SBD,Single-ply,4
R. Escamilla,82.5,Class II,M,231.33,140.61,240.4,612.35,SBD,Single-ply,5
D. Barrie,82.5,Class II,M,215.46,129.27,242.67,587.4,SBD,Single-ply,6
Jerry Hunt,82.5,Class II,M,195.04,142.88,226.8,564.72,SBD,Single-ply,7
B. Shilts,82.5,Class II,M,172.37,151.95,206.38,530.7,SBD,Single-ply,8
Dennis Hays,82.5,Class II,M,188.24,124.74,206.38,519.36,SBD,Single-ply,9
B. Nutter,82.5,Class II,M,192.78,127.01,188.24,508.02,SBD,Single-ply,10
Ben Werner,82.5,Class II,M,174.63,124.74,195.04,494.42,SBD,Single-ply,11
J. Marsh,82.5,Class II,M,158.76,120.2,210.92,489.88,SBD,Single-ply,12
C. Anderson,82.5,Class II,M,170.1,104.33,199.58,474,SBD,Single-ply,13
R. Peterson,82.5,Class II,M,170.1,95.25,204.12,469.47,SBD,Single-ply,14
R. Sundling,82.5,Class II,M,156.49,90.72,199.58,446.79,SBD,Single-ply,15
Terry Hays,82.5,Class II,M,165.56,95.25,181.44,442.25,SBD,Single-ply,16
Brian Resch,90,Class II,M,260.82,167.83,260.82,689.46,SBD,Single-ply,1
Jeff Leveridge,90,Class II,M,233.6,158.76,247.21,639.57,SBD,Single-ply,3
Gail Walters,90,Class II,M,258.55,147.42,229.06,635.03,SBD,Single-ply,4
Greg Hovies,90,Class II,M,240.4,124.74,267.62,632.76,SBD,Single-ply,5
Todd Christensen,90,Class II,M,265.35,138.35,256.28,659.98,SBD,Single-ply,2
T. Bradshaw,90,Class II,M,231.33,154.22,231.33,616.89,SBD,Single-ply,6
R. Lauson,90,Class II,M,226.8,145.15,235.87,607.81,SBD,Single-ply,7
R. Henderson,90,Class II,M,231.33,142.88,231.33,605.55,SBD,Single-ply,8
Mike Nakamichi,90,Class II,M,217.72,147.42,235.87,601.01,SBD,Single-ply,10
C. Nagata,90,Class II,M,226.8,145.15,231.33,603.28,SBD,Single-ply,9
M. Dotson,90,Class II,M,206.38,140.61,251.74,598.74,SBD,Single-ply,11
Jim Tangeman,90,Class II,M,197.31,120.2,238.14,555.65,SBD,Single-ply,12
Dean Mitchell,90,Class II,M,183.71,122.47,231.33,537.51,SBD,Single-ply,13
Steve Zerby,90,Class II,M,158.76,99.79,201.85,460.4,SBD,Single-ply,14
Terry Simons,100,Class II,M,317.52,222.26,292.57,832.34,SBD,Single-ply,1
Tim Johnson,100,Class II,M,276.69,154.22,276.69,707.6,SBD,Single-ply,2
Bart Rask,100,Class II,M,258.55,165.56,256.28,680.39,SBD,Single-ply,3
S. Pitman,100,Class II,M,258.55,158.76,263.08,680.39,SBD,Single-ply,4
Dennis Miner,100,Class II,M,238.14,167.83,265.35,671.32,SBD,Single-ply,5
B. Hardina,100,Class II,M,258.55,161.03,244.94,664.51,SBD,Single-ply,6
R. Pies,100,Class II,M,226.8,172.37,258.55,657.71,SBD,Single-ply,7
B. Moore #10,100,Class II,M,231.33,151.95,258.55,641.83,SBD,Single-ply,8
E. VanDerZanden,100,Class II,M,217.72,142.88,265.35,625.96,SBD,Single-ply,9
H. Bannister,100,Class II,M,226.8,174.63,217.72,619.15,SBD,Single-ply,10
L. Grewell,100,Class II,M,208.65,138.35,249.48,596.47,SBD,Single-ply,11
D. Benton,100,Class II,M,199.58,122.47,199.58,521.63,SBD,Single-ply,12
D. Richardson,100,Class II,M,201.85,127.01,188.24,517.1,SBD,Single-ply,13
Dan Pogue,100,Class II,M,192.78,113.4,197.31,503.49,SBD,Single-ply,14
Thaddeus Mercer,110,Class II,M,276.69,217.72,315.25,809.66,SBD,Single-ply,1
Mark Jackson #7,110,Class II,M,242.67,127.01,299.37,669.05,SBD,Single-ply,2
Steve Goebel,110,Class II,M,226.8,167.83,272.16,666.78,SBD,Single-ply,3
R. Edwards,110,Class II,M,235.87,165.56,249.48,650.91,SBD,Single-ply,4
J. Pavlicek,110,Class II,M,229.06,151.95,235.87,616.89,SBD,Single-ply,5
Chuck Armsbury,110,Class II,M,188.24,147.42,272.16,607.81,SBD,Single-ply,6
T. Moore,110,Class II,M,215.46,133.81,240.4,589.67,SBD,Single-ply,7
Isaac Pankratz,110,Class II,M,217.72,145.15,,,SBD,Single-ply,DQ
D. Gilbert,125,Class II,M,258.55,190.51,299.37,748.43,SBD,Single-ply,1
Keith Wochnick,125,Class II,M,256.28,201.85,256.28,714.41,SBD,Single-ply,2
Tom Lackey,125,Class II,M,281.23,149.69,274.42,705.34,SBD,Single-ply,4
Andy Medak,125,Class II,M,249.48,190.51,267.62,707.6,SBD,Single-ply,3
C. Reetz,125,Class II,M,195.04,122.47,215.46,532.97,SBD,Single-ply,5
Bob Howington,125+,Class II,M,263.08,117.93,303.91,684.93,SBD,Single-ply,1
Vincent Eldridge,125+,Class II,M,244.94,163.29,276.69,684.93,SBD,Single-ply,2
