Division,WeightClassKg,Place,Name,Team,BodyweightKg,Best3SquatKg,Best3BenchKg,Best3DeadliftKg,TotalKg,Equipment,Event,Sex,BirthDate
Boys,51.71,1,Fabian Garcia,Edinburg Idea College Prep,50.98,170.1,115.67,174.63,460.4,Single-ply,SBD,M,
Boys,51.71,2,Alex Garcia #2,Cotulla,51.07,161.03,88.45,156.49,405.97,Single-ply,SBD,M,
Boys,51.71,3,Tomas Elizondo,San Diego,51.71,158.76,83.91,156.49,399.16,Single-ply,SBD,M,
Boys,51.71,4,Jacob Guerrero,Yorktown,51.53,149.69,83.91,147.42,381.02,Single-ply,SBD,M,
Boys,51.71,5,Adian Hernandez,La Villa,50.08,133.81,90.72,138.35,362.87,Single-ply,SBD,M,
Boys,51.71,6,Rey Medrano,Mathis,51.44,127.01,72.57,158.76,358.34,Single-ply,SBD,M,
Boys,51.71,7,Jose Huerta,Santa Gertrudis Academy,51.71,136.08,74.84,147.42,358.34,Single-ply,SBD,M,
Boys,51.71,8,Chris Edwards,Aransas Pass,50.98,129.27,74.84,142.88,347,Single-ply,SBD,M,
Boys,51.71,9,Brandon Bowen,San Diego,51.71,129.27,79.38,129.27,337.93,Single-ply,SBD,M,
Boys,51.71,10,Noah Estrada,Agua Dulce,51.53,129.27,72.57,131.54,333.39,Single-ply,SBD,M,
Boys,51.71,DQ,Angelo Legaspe,San Antonio Cole,51.35,,,,,Single-ply,SBD,M,
Boys,51.71,NS,Christian Pena,Benavides,,,,,,Single-ply,SBD,M,
Boys,55.79,1,Joey Rodriguez,Edinburg Idea College Prep,55.79,183.7,129.27,192.78,505.76,Single-ply,SBD,M,
Boys,55.79,2,Bryan Gutierrez,Bishop,55.43,170.1,111.13,170.1,451.32,Single-ply,SBD,M,
Boys,55.79,3,David Perez,Ben Bolt-Palito Blanco,54.43,170.1,95.25,183.7,449.06,Single-ply,SBD,M,
Boys,55.79,4,Joseph Salazar,Cotulla,55.52,158.76,99.79,190.51,449.06,Single-ply,SBD,M,
Boys,55.79,5,Jacob Garcia,Cotulla,55.79,163.29,97.52,170.1,430.91,Single-ply,SBD,M,
Boys,55.79,6,Javier Aleman,Karnes City,54.79,158.76,83.91,165.56,408.23,Single-ply,SBD,M,
Boys,55.79,7,Gabriel Chavez,Lyford,55.52,154.22,70.31,183.7,408.23,Single-ply,SBD,M,
Boys,55.79,8,Dalton Oppermann,Columbus,54.43,138.35,97.52,149.69,385.55,Single-ply,SBD,M,
Boys,55.79,9,Enrique DeLeon,Kenedy,54.79,145.15,92.99,145.15,383.29,Single-ply,SBD,M,
Boys,55.79,10,Rogelio Sanchez,Odem,55.79,129.27,70.31,174.63,374.21,Single-ply,SBD,M,
Boys,55.79,DQ,Matthew Lopez #2,Mathis,55.79,183.7,86.18,,,Single-ply,SBD,M,
Boys,59.87,1,Elijah Wheeler,Edinburg Quest College Prep,59.87,210.92,124.74,229.06,564.72,Single-ply,SBD,M,
Boys,59.87,2,Jerek Sanchez,Taft,59.06,183.7,145.15,208.65,537.51,Single-ply,SBD,M,
Boys,59.87,3,Dedrick Querner,Jourdanton,59.24,199.58,108.86,206.38,514.83,Single-ply,SBD,M,
Boys,59.87,4,Reagan Villareal,Kenedy,58.97,190.51,88.45,183.7,462.66,Single-ply,SBD,M,
Boys,59.87,5,Adrian Valdez,Goliad,59.78,165.56,104.33,183.7,453.59,Single-ply,SBD,M,
Boys,59.87,6,Joe Fraga,Runge,59.6,167.83,86.18,185.97,439.98,Single-ply,SBD,M,
Boys,59.87,7,Jacob Martinez,Hebbronville,59.78,161.03,88.45,176.9,426.38,Single-ply,SBD,M,
Boys,59.87,8,Ernesto Consuegra,Cotulla,58.97,156.49,88.45,172.37,417.3,Single-ply,SBD,M,
Boys,59.87,9,Gabriel García,Bishop,59.47,154.22,92.99,165.56,412.77,Single-ply,SBD,M,
Boys,59.87,DQ,Joseph Espinoza,Taft,59.24,183.7,115.67,,,Single-ply,SBD,M,
Boys,67.13,1,Gavin Chapa,Corpus Christi London,66.59,229.06,142.88,244.94,616.89,Single-ply,SBD,M,
Boys,67.13,2,Nathan Meza,Refugio,66.32,222.26,127.01,226.8,576.06,Single-ply,SBD,M,
Boys,67.13,3,Elijah Ybarra,Mathis,66.77,219.99,133.81,195.04,548.85,Single-ply,SBD,M,
Boys,67.13,4,Tyler McClaugherty,Lyford,65.32,238.14,102.06,204.12,544.31,Single-ply,SBD,M,
Boys,67.13,5,Alex Sanchez,Kenedy,66.77,199.58,102.06,213.19,514.83,Single-ply,SBD,M,
Boys,67.13,6,Jody Ruiz,Mathis,66.22,181.44,147.42,181.44,510.29,Single-ply,SBD,M,
Boys,67.13,7,Sammy Bustamante,Center Point,66.13,201.85,106.59,195.04,503.49,Single-ply,SBD,M,
Boys,67.13,8,Joseph Chavez,Taft,66.5,197.31,102.06,204.12,503.49,Single-ply,SBD,M,
Boys,67.13,9,Elyon Ybarra,Mathis,63.5,181.44,124.74,195.04,501.22,Single-ply,SBD,M,
Boys,67.13,10,Jeremy Hinojosa,Bloomington,67.13,181.44,106.59,183.7,471.74,Single-ply,SBD,M,
Boys,67.13,11,Austin Mendez,San Diego,65.77,174.63,108.86,183.7,467.2,Single-ply,SBD,M,
Boys,67.13,DQ,Quen Syma,Lytle,66.04,195.04,115.67,,,Single-ply,SBD,M,
Boys,74.84,1,Lee Bazan,San Diego,74.48,294.84,167.83,242.67,705.34,Single-ply,SBD,M,
Boys,74.84,2,Adrian Vasquez,Natalia,72.39,254.01,120.2,217.72,591.94,Single-ply,SBD,M,
Boys,74.84,3,Antonio Vasquez,Edinburg Quest College Prep,74.57,224.53,115.67,238.14,578.33,Single-ply,SBD,M,
Boys,74.84,4,Diego Zapata,Natalia,71.03,238.14,113.4,219.99,571.53,Single-ply,SBD,M,
Boys,74.84,5,Alvin Amador,Kenedy,73.75,217.72,129.27,224.53,571.53,Single-ply,SBD,M,
Boys,74.84,6,Ray Rayos,Marion,74.75,199.58,124.74,242.67,566.99,Single-ply,SBD,M,
Boys,74.84,7,Anthony Garcia,Mathis,74.03,197.31,140.61,217.72,555.65,Single-ply,SBD,M,
Boys,74.84,8,Elijah Banda,Natalia,73.12,204.12,127.01,213.19,544.31,Single-ply,SBD,M,
Boys,74.84,9,Robert Rivera,La Villa,71.67,204.12,124.74,192.78,521.63,Single-ply,SBD,M,
Boys,74.84,10,Aaron Lozano,Edinburg Quest College Prep,73.66,142.88,113.4,158.76,415.04,Single-ply,SBD,M,
Boys,74.84,DQ,Logen Schanen,Skidmore-Tynan,72.67,201.85,,,,Single-ply,SBD,M,
Boys,74.84,DQ,Chris Garcia #15,Ben Bolt-Palito Blanco,68.76,,,,,Single-ply,SBD,M,
Boys,82.1,1,Kyle Jones,Poth,81.65,263.08,127.01,254.01,644.1,Single-ply,SBD,M,
Boys,82.1,2,Demetri Sanchez,Corpus Christi London,80.74,229.06,145.15,242.67,616.89,Single-ply,SBD,M,
Boys,82.1,3,Jacob Trujillo,Universal City Randolph,81.92,244.94,136.08,235.87,616.89,Single-ply,SBD,M,
Boys,82.1,4,Rylan Wagner,Lytle,81.01,238.14,147.42,226.8,612.35,Single-ply,SBD,M,
Boys,82.1,5,Dale Baez,Hebbronville,81.74,244.94,149.69,199.58,594.21,Single-ply,SBD,M,
Boys,82.1,6,Caleb Marshall,Hebbronville,80.74,226.8,147.42,217.72,591.94,Single-ply,SBD,M,
Boys,82.1,7,George De Los Santos,Kenedy,80.92,231.33,113.4,215.46,560.19,Single-ply,SBD,M,
Boys,82.1,8,Weston Warschak,Columbus,81.01,204.12,136.08,204.12,544.31,Single-ply,SBD,M,
Boys,82.1,9,Marco Burkman,San Antonio Cole,81.47,206.38,133.81,183.7,523.9,Single-ply,SBD,M,
Boys,82.1,DQ,Brandon Rocha,Lyford,77.93,210.92,136.08,,,Single-ply,SBD,M,
Boys,82.1,DQ,Cody Ceo,Ben Bolt-Palito Blanco,78.38,213.19,,,,Single-ply,SBD,M,
Boys,89.81,1,Derik DeLeon,Mathis,88.09,285.76,208.65,265.35,759.77,Single-ply,SBD,M,
Boys,89.81,2,Martin Rabanales,Edinburg Quest College Prep,88.18,272.16,136.08,226.8,635.03,Single-ply,SBD,M,
Boys,89.81,3,Aaron Ramirez,Dilley,88.72,256.28,151.95,226.8,635.03,Single-ply,SBD,M,
Boys,89.81,4,Carlos Verdin,Jourdanton,88.09,254.01,156.49,219.99,630.49,Single-ply,SBD,M,
Boys,89.81,5,Damien Campos,Bishop,86.18,249.48,147.42,215.46,612.35,Single-ply,SBD,M,
Boys,89.81,6,Jonathan Pena,San Diego,88.45,235.87,142.88,215.46,594.21,Single-ply,SBD,M,
Boys,89.81,7,Austin Barrera,Rocksprings,89.18,249.48,117.93,210.92,578.33,Single-ply,SBD,M,
Boys,89.81,8,Paul Baez,Hebbronville,86.18,215.46,147.42,199.58,562.45,Single-ply,SBD,M,
Boys,89.81,9,Eric Ortega,Cotulla,88.27,201.85,142.88,217.72,562.45,Single-ply,SBD,M,
Boys,89.81,10,Bradley Flores,Bloomington,84.64,213.19,122.47,215.46,551.11,Single-ply,SBD,M,
Boys,89.81,11,Austin Montanez,San Antonio Cole,88.63,204.12,102.06,204.12,510.29,Single-ply,SBD,M,
Boys,89.81,DQ,Landon Garza,Odem,88.36,,,,,Single-ply,SBD,M,
Boys,99.79,1,Issac Paredes,Jourdanton,97.61,276.69,174.63,249.48,700.8,Single-ply,SBD,M,
Boys,99.79,2,Marcos Gonzalez,Ben Bolt-Palito Blanco,98.34,265.35,158.76,258.55,682.66,Single-ply,SBD,M,
Boys,99.79,3,Michael Martinez,Natalia,97.16,297.1,136.08,240.4,673.58,Single-ply,SBD,M,
Boys,99.79,4,Juan Chavera,Falfurrias,92.99,281.23,161.03,226.8,669.05,Single-ply,SBD,M,
Boys,99.79,5,Jackson Roensch,Columbus,97.07,240.4,190.51,226.8,657.71,Single-ply,SBD,M,
Boys,99.79,6,Marcus Cerda,Taft,98.7,258.55,163.29,219.99,641.83,Single-ply,SBD,M,
Boys,99.79,7,Clayton Klekar,Goliad,98.16,254.01,142.88,242.67,639.57,Single-ply,SBD,M,
Boys,99.79,8,Steven Nava,Karnes City,97.34,226.8,133.81,224.53,585.13,Single-ply,SBD,M,
Boys,99.79,DQ,Dante DeLeon,Mathis,96.34,247.21,167.83,,,Single-ply,SBD,M,
Boys,99.79,DQ,Vincente Cabrera,Weimar,93.62,210.92,142.88,,,Single-ply,SBD,M,
Boys,99.79,DQ,Eli Gonzalez,Cotulla,96.25,226.8,,,,Single-ply,SBD,M,
Boys,109.77,1,Uriel Arellano,Natalia,108.41,274.42,210.92,247.21,732.55,Single-ply,SBD,M,
Boys,109.77,2,Emmanuel Cepeda,Lyford,105.6,269.89,183.7,240.4,694,Single-ply,SBD,M,
Boys,109.77,3,Gustavo Gomez,Natalia,101.97,272.16,147.42,226.8,646.37,Single-ply,SBD,M,
Boys,109.77,4,Dustin Soto,Natalia,106.78,263.08,124.74,249.48,637.3,Single-ply,SBD,M,
Boys,109.77,5,Logan Hebert,Stockdale,109.77,242.67,174.63,217.72,635.03,Single-ply,SBD,M,
Boys,109.77,6,Andrew Velasquez,Cotulla,108.05,226.8,172.37,213.19,612.35,Single-ply,SBD,M,
Boys,109.77,7,Jaden Arthur,Universal City Randolph,100.88,249.48,108.86,249.48,607.81,Single-ply,SBD,M,
Boys,109.77,8,Isaiah Sanchez,Natalia,104.05,233.6,124.74,242.67,601.01,Single-ply,SBD,M,
Boys,109.77,DQ,Julian Gomez,Odem,108.68,,,,,Single-ply,SBD,M,
Boys,109.77,DQ,Jamie Gonzalez,Taft,107.77,269.89,156.49,,,Single-ply,SBD,M,
Boys,109.77,DQ,Richard Alvarado,Aransas Pass,107.41,,,,,Single-ply,SBD,M,
Boys,124.74,1,Cameron Roulston,Corpus Christi London,120.38,294.84,185.97,281.23,762.04,Single-ply,SBD,M,
Boys,124.74,2,Paul Billalobos,Natalia,123.01,317.51,165.56,265.35,748.43,Single-ply,SBD,M,
Boys,124.74,3,Dustin Dominguez,Dilley,119.29,283.5,165.56,254.01,703.07,Single-ply,SBD,M,
Boys,124.74,4,Jace Gonzales,Karnes City,110.86,281.23,145.15,240.4,666.78,Single-ply,SBD,M,
Boys,124.74,5,Paul Rojas,Goliad,115.67,249.48,158.76,222.26,630.49,Single-ply,SBD,M,
Boys,124.74,6,John Cuevas #2,Skidmore-Tynan,118.3,254.01,149.69,219.99,623.69,Single-ply,SBD,M,
Boys,124.74,7,Jaime Elissetche,La Villa,121.2,267.62,131.54,217.72,616.89,Single-ply,SBD,M,
Boys,124.74,8,Diego Hernandez,Natalia,115.39,233.6,142.88,233.6,610.08,Single-ply,SBD,M,
Boys,124.74,9,Joseph Luna,Kenedy,119.84,235.87,117.93,233.6,587.4,Single-ply,SBD,M,
Boys,124.74,10,Brandon Lara,Schulenburg,121.11,244.94,138.35,204.12,587.4,Single-ply,SBD,M,
Boys,124.74,DQ,John Rodriguez,Skidmore-Tynan,116.39,,,,,Single-ply,SBD,M,
Boys,124.74+,1,Ryan Garcia #1,Edinburg Idea College Prep,129.09,290.3,163.29,272.16,725.75,Single-ply,SBD,M,
Boys,124.74+,2,Xavier Perry,Goliad,144.51,303.91,156.49,215.46,675.85,Single-ply,SBD,M,
Boys,124.74+,3,Ruben Leal,Aransas Pass,146.15,235.87,208.65,224.53,669.05,Single-ply,SBD,M,
Boys,124.74+,4,Dylan Ramirez,Altair Rice,135.17,281.23,156.49,213.19,650.91,Single-ply,SBD,M,
Boys,124.74+,5,Dalton Perry,Poth,127.55,276.69,142.88,226.8,646.37,Single-ply,SBD,M,
Boys,124.74+,6,Dorien Enriquez,Rocksprings,145.33,272.16,145.15,217.72,635.03,Single-ply,SBD,M,
Boys,124.74+,7,Chris Rodriguez,Hebbronville,133.36,244.94,167.83,215.46,628.23,Single-ply,SBD,M,
Boys,124.74+,8,Ademar Garcia,Hebbronville,134.26,256.28,145.15,222.26,623.69,Single-ply,SBD,M,
Boys,124.74+,9,Bode Walters,Marion,135.44,231.33,156.49,210.92,598.74,Single-ply,SBD,M,
Boys,124.74+,DQ,Cody Robert,Hallettsville,147.42,226.8,,,,Single-ply,SBD,M,
Boys,124.74+,DQ,Samuel Salinas,Santa Gertrudis Academy,134.54,,,,,Single-ply,SBD,M,
