Division,WeightClassKg,Place,Name,Team,BodyweightKg,Best3SquatKg,Best3BenchKg,Best3DeadliftKg,TotalKg,Equipment,Event,Sex
Boys,51.71,1,Kyle Ramsey,Navasota,51.71,120.2,70.31,120.2,310.71,Single-ply,SBD,M
Boys,51.71,2,Eric Aceves,Madisonville,51.71,113.4,70.31,124.74,308.44,Single-ply,SBD,M
Boys,51.71,3,Jacob Cadieux,Waller,51.71,113.4,63.5,122.47,299.37,Single-ply,SBD,M
Boys,51.71,4,Eric Eckert,Magnolia,50.8,97.52,70.31,111.13,278.96,Single-ply,SBD,M
Boys,51.71,5,Ryan Kerr,Conroe Woodlands College Park,47.63,70.31,38.56,72.57,181.44,Single-ply,SBD,M
Boys,55.79,1,D'Montre Brown,Cameron Yoe,55.34,161.03,92.99,192.78,446.79,Single-ply,SBD,M
Boys,55.79,2,Darius Mallard,Navasota,55.79,145.15,88.45,167.83,401.43,Single-ply,SBD,M
Boys,55.79,3,Tyler Sevcik,College Station A&M Cons,54.43,131.54,90.72,149.69,371.95,Single-ply,SBD,M
Boys,55.79,4,Ray Perez #3,Madisonville,55.79,117.93,77.11,122.47,317.51,Single-ply,SBD,M
Boys,55.79,5,Dominique Mallard,Navasota,53.07,108.86,70.31,129.27,308.44,Single-ply,SBD,M
Boys,55.79,6,Nick Harris,Madisonville,55.34,111.13,72.57,124.74,308.44,Single-ply,SBD,M
Boys,55.79,7,Daniel Segura,Magnolia,53.52,102.06,72.57,120.2,294.84,Single-ply,SBD,M
Boys,55.79,8,Logan Teal,Conroe Woodlands College Park,54.43,102.06,54.43,113.4,269.89,Single-ply,SBD,M
Boys,59.87,1,Ismael Castillo,Madisonville,59.42,149.69,92.99,151.95,394.63,Single-ply,SBD,M
Boys,59.87,2,Chaise Edwards,Montgomery,58.51,170.1,74.84,136.08,381.02,Single-ply,SBD,M
Boys,59.87,3,Albert Cortez,Bryan,58.97,142.88,77.11,158.76,378.75,Single-ply,SBD,M
Boys,59.87,4,John-Bradley Green,Conroe Woodlands College Park,59.42,131.54,74.84,156.49,362.87,Single-ply,SBD,M
Boys,59.87,5,Kyle Stafford,Navasota,56.7,138.35,77.11,140.61,356.07,Single-ply,SBD,M
Boys,59.87,6,Matt Hebert,Magnolia,58.06,138.35,72.57,138.35,349.27,Single-ply,SBD,M
Boys,59.87,DQ,Gabriel Santillan,Bryan,59.87,120.2,72.57,,,Single-ply,SBD,M
Boys,59.87,DQ,Byron Williams,Bryan,58.51,83.91,68.04,,,Single-ply,SBD,M
Boys,67.13,1,Zerrick Merchant,College Station A&M Cons,63.05,215.46,124.74,233.6,573.79,Single-ply,SBD,M
Boys,67.13,2,Brandon Jackson,College Station A&M Cons,66.22,206.38,102.06,185.97,494.42,Single-ply,SBD,M
Boys,67.13,3,Terrence Leonard,Conroe,67.13,158.76,111.13,172.37,442.25,Single-ply,SBD,M
Boys,67.13,4,Franteric Powell,Navasota,64.86,163.29,102.06,158.76,424.11,Single-ply,SBD,M
Boys,67.13,5,Jordan Akagi,Magnolia,67.13,161.03,102.06,147.42,410.5,Single-ply,SBD,M
Boys,67.13,6,Carlos Lucio,Bryan,65.54,151.95,102.06,142.88,396.89,Single-ply,SBD,M
Boys,67.13,7,Jared Cohan,Bryan Rudder,65.77,142.88,83.91,161.03,387.82,Single-ply,SBD,M
Boys,67.13,8,Dillon Blackwell,Conroe Woodlands College Park,66.22,122.47,70.31,156.49,349.27,Single-ply,SBD,M
Boys,67.13,9,Jernon Hawley,Buffalo,62.6,97.52,54.43,95.25,247.21,Single-ply,SBD,M
Boys,74.84,1,Kendrick Armstead,Navasota,74.39,272.16,149.69,235.87,657.71,Single-ply,SBD,M
Boys,74.84,2,Caleb Schneebeli,Bryan Rudder,74.39,181.44,108.86,231.33,521.63,Single-ply,SBD,M
Boys,74.84,3,John Patty,Montgomery,72.12,199.58,129.27,188.24,517.1,Single-ply,SBD,M
Boys,74.84,4,Matt Gray,Conroe,72.12,183.7,124.74,183.7,492.15,Single-ply,SBD,M
Boys,74.84,5,Willie Lavan,Cameron Yoe,68.04,158.76,104.33,199.58,462.66,Single-ply,SBD,M
Boys,74.84,6,Jesus Lopez,Buffalo,68.49,158.76,90.72,181.44,430.91,Single-ply,SBD,M
Boys,74.84,7,Brendan Kinnay,Conroe,71.67,147.42,97.52,181.44,426.38,Single-ply,SBD,M
Boys,74.84,8,Ryan Mascheri,Montgomery,71.21,163.29,111.13,142.88,417.3,Single-ply,SBD,M
Boys,74.84,9,Brayson Boyde,Magnolia,70.31,161.03,102.06,136.08,399.16,Single-ply,SBD,M
Boys,74.84,10,Carson Neal,Montgomery,73.48,145.15,92.99,158.76,396.89,Single-ply,SBD,M
Boys,74.84,11,Omar Borjas,Waller,70.76,136.08,77.11,170.1,383.29,Single-ply,SBD,M
Boys,74.84,12,Antwone Wallace,Bryan,69.85,136.08,72.57,163.29,371.95,Single-ply,SBD,M
Boys,74.84,13,Brendan Myers,Cameron Yoe,67.59,111.13,61.23,102.06,274.42,Single-ply,SBD,M
Boys,74.84,DQ,Cody Mullens,Montgomery,70.76,136.08,99.79,127.01,,Single-ply,SBD,M
Boys,74.84,DQ,Colton Wetuski,Montgomery,67.59,136.08,79.38,122.47,,Single-ply,SBD,M
Boys,74.84,DQ,Tavian Walton,Bryan,74.39,145.15,,,,Single-ply,SBD,M
Boys,82.1,1,Joe Waithaka,College Station A&M Cons,81.19,238.14,156.49,231.33,625.96,Single-ply,SBD,M
Boys,82.1,2,Jose Dominguez,Buffalo,78.93,226.8,140.61,226.8,594.21,Single-ply,SBD,M
Boys,82.1,3,Josh McKerley,Waller,78.02,210.92,104.33,181.44,496.68,Single-ply,SBD,M
Boys,82.1,4,Ryan Clever,Madisonville,78.02,158.76,129.27,181.44,469.47,Single-ply,SBD,M
Boys,82.1,5,Michael Evan,Cameron Yoe,78.02,181.44,95.25,192.78,469.47,Single-ply,SBD,M
Boys,82.1,6,Thomas Guillen,Conroe,75.3,174.63,102.06,181.44,458.13,Single-ply,SBD,M
Boys,82.1,7,Alija Barber,Madisonville,75.75,158.76,90.72,136.08,385.55,Single-ply,SBD,M
Boys,89.81,1,DJ Levias,College Station A&M Cons,88,244.94,154.22,254.01,653.17,Single-ply,SBD,M
Boys,89.81,2,Shyerome Harris,Magnolia,82.55,224.53,120.2,226.8,571.53,Single-ply,SBD,M
Boys,89.81,3,Michael Clouston,College Station A&M Cons,89.81,229.06,122.47,208.65,560.19,Single-ply,SBD,M
Boys,89.81,4,Taylor Faridifar,Conroe,83.46,190.51,142.88,201.85,535.24,Single-ply,SBD,M
Boys,89.81,5,Alejandro Rodriguez,Bryan Rudder,88,172.37,97.52,199.58,469.47,Single-ply,SBD,M
Boys,89.81,6,Andrew Arevalo,Bryan Rudder,88.45,167.83,108.86,163.29,439.98,Single-ply,SBD,M
Boys,89.81,7,Dustin Leigh,Montgomery,85.28,172.37,117.93,142.88,433.18,Single-ply,SBD,M
Boys,89.81,8,Matt Miller,Bryan,88.9,151.95,102.06,161.03,415.04,Single-ply,SBD,M
Boys,89.81,DQ,John Paul Gonzales,Bryan Rudder,88.45,140.61,,136.08,,Single-ply,SBD,M
Boys,89.81,DQ,Wyatt Chalmers,Montgomery,89.36,,90.72,142.88,,Single-ply,SBD,M
Boys,99.79,1,Luis Garcia #2,College Station A&M Cons,92.99,235.87,147.42,226.8,610.08,Single-ply,SBD,M
Boys,99.79,2,Corey Goosby,Bryan,95.71,188.24,131.54,217.72,537.51,Single-ply,SBD,M
Boys,99.79,3,Brian Jones,Montgomery,91.17,183.7,138.35,213.19,535.24,Single-ply,SBD,M
Boys,99.79,4,Chad Campagna,Conroe,97.52,190.51,127.01,181.44,498.95,Single-ply,SBD,M
Boys,99.79,5,Ethridge Brooks,Madisonville,97.98,188.24,113.4,195.04,496.68,Single-ply,SBD,M
Boys,99.79,6,Julio Camarena,Madisonville,99.34,170.1,117.93,172.37,460.4,Single-ply,SBD,M
Boys,99.79,7,Clayton Lapp,Bryan Rudder,92.08,174.63,108.86,161.03,444.52,Single-ply,SBD,M
Boys,99.79,8,Angel Fabela,Conroe,96.62,149.69,95.25,147.42,392.36,Single-ply,SBD,M
Boys,109.77,1,Wyatt Smith,College Station A&M Cons,108.86,254.01,149.69,215.46,619.15,Single-ply,SBD,M
Boys,109.77,2,Connor Greer,Conroe,103.87,215.46,136.08,231.33,582.87,Single-ply,SBD,M
Boys,109.77,3,Will Demmings,Conroe,107.05,213.19,115.67,188.24,517.1,Single-ply,SBD,M
Boys,109.77,4,Taylor McKenzie #1,Magnolia,103.87,210.92,115.67,181.44,508.02,Single-ply,SBD,M
Boys,109.77,5,Miguel Fabela,Conroe,100.7,185.97,106.59,181.44,474,Single-ply,SBD,M
Boys,109.77,6,Mario Cortez,Buffalo,107.05,188.24,102.06,158.76,449.06,Single-ply,SBD,M
Boys,109.77,7,Cameron Mueck,Cameron Yoe,106.59,172.37,102.06,158.76,433.18,Single-ply,SBD,M
Boys,109.77,8,Markho Babasoro,College Station A&M Cons,107.05,174.63,97.52,158.76,430.91,Single-ply,SBD,M
Boys,109.77,9,Sam Grubbs #2,Conroe Woodlands College Park,106.59,170.1,88.45,165.56,424.11,Single-ply,SBD,M
Boys,109.77,10,Juan Valverde,Cameron Yoe,106.59,167.83,95.25,147.42,410.5,Single-ply,SBD,M
Boys,109.77,DQ,Henderson Watkins,Montgomery,101.15,,,,,Single-ply,SBD,M
Boys,109.77,DQ,Conner DeAngelo,Waller,109.77,163.29,,,,Single-ply,SBD,M
Boys,124.74,1,Jj Bynum,College Station A&M Cons,123.38,326.59,176.9,276.69,780.18,Single-ply,SBD,M
Boys,124.74,2,Michael Cadena,Bryan,123.38,294.84,174.63,,469.47,Single-ply,SB,M
Boys,124.74,3,Autra Maxey,Navasota,114.31,258.55,149.69,263.08,671.32,Single-ply,SBD,M
Boys,124.74,4,Kyle Kavanaugh,College Station A&M Cons,113.4,256.28,120.2,206.38,582.87,Single-ply,SBD,M
Boys,124.74,5,Jorge Rosas,Madisonville,116.12,204.12,124.74,199.58,528.44,Single-ply,SBD,M
Boys,124.74,6,Jake Pullara,Montgomery,121.56,215.46,136.08,176.9,528.44,Single-ply,SBD,M
Boys,124.74,7,Brad Carley,Conroe Woodlands College Park,117.93,190.51,115.67,195.04,501.22,Single-ply,SBD,M
Boys,124.74,8,Dalton Gilbert,Madisonville,111.58,158.76,117.93,163.29,439.98,Single-ply,SBD,M
Boys,124.74,9,Keaton Nelson,Conroe Woodlands College Park,110.68,174.63,86.18,158.76,419.57,Single-ply,SBD,M
Boys,124.74,10,Jacob DeBorde,Buffalo,113.85,158.76,92.99,136.08,387.82,Single-ply,SBD,M
Boys,124.74,11,Justin Mathiesen,Conroe Woodlands College Park,114.76,138.35,79.38,136.08,353.8,Single-ply,SBD,M
Boys,124.74,DQ,Jordan Wells,Navasota,118.39,,,,,Single-ply,SBD,M
Boys,124.74+,1,Dimitri Carpenter,Conroe,128.82,267.62,161.03,249.48,678.12,Single-ply,SBD,M
Boys,124.74+,2,Larry Reed #2,Magnolia,137.89,272.16,142.88,188.24,603.28,Single-ply,SBD,M
Boys,124.74+,3,Trevin Pomier,Navasota,158.76,199.58,122.47,199.58,521.63,Single-ply,SBD,M
Boys,124.74+,4,Tyler White #4,Navasota,148.32,195.04,122.47,199.58,517.1,Single-ply,SBD,M
Boys,124.74+,5,Michael Craig,Madisonville,146.06,181.44,129.27,195.04,505.76,Single-ply,SBD,M
Boys,124.74+,DQ,Andrew Rush,Waller,126.55,,,,,Single-ply,SBD,M
Boys,124.74+,DQ,Keith Lewis,Bryan,127.01,276.69,151.95,,,Single-ply,SBD,M
