Name,WeightClassKg,Division,AgeRange,Sex,Best3SquatKg,Best3BenchKg,Best3DeadliftKg,TotalKg,Event,Equipment,Place
Franklin Keefer,56,Amateur Open,,M,188.24,108.86,181.44,478.54,SBD,Multi-ply,1
John Cooke,56,Amateur Open,,M,147.42,106.59,188.24,442.25,SBD,Multi-ply,2
Brian Crowe,67.5,Amateur Open,,M,219.99,149.69,213.19,582.87,SBD,Multi-ply,1
D. Spearing,67.5,Amateur Open,,M,197.31,129.27,215.46,542.04,SBD,Multi-ply,2
P. Sisay,67.5,Amateur Open,,M,172.37,145.15,210.92,528.4,SBD,Multi-ply,3
Terry Shinault,67.5,Amateur Open,,M,190.51,117.93,197.31,505.76,SBD,Multi-ply,4
Dean Graybill,75,Amateur Open,,M,229.06,120.2,217.72,566.99,SBD,Multi-ply,1
P. Enrico,75,Amateur Open,,M,174.63,147.42,192.78,514.83,SBD,Multi-ply,2
D. Moore,75,Amateur Open,,M,181.44,149.69,181.44,512.56,SBD,Multi-ply,3
Tom Lavelle,82.5,Amateur Open,,M,260.82,174.63,215.46,650.91,SBD,Multi-ply,1
Derek Wallace,82.5,Amateur Open,,M,249.48,136.08,192.78,578.3,SBD,Multi-ply,2
G. Albright,82.5,Amateur Open,,M,192.78,117.93,195.04,505.7,SBD,Multi-ply,3
D. Lindsay,82.5,Amateur Open,,M,204.12,147.42,185.97,537.5,SBD,Multi-ply,4
R. Perry,82.5,Amateur Open,,M,181.44,136.08,197.31,514.83,SBD,Multi-ply,5
D. Panckeri,90,Amateur Open,,M,290.3,185.97,249.48,725.75,SBD,Multi-ply,1
Bob Calhoun,90,Amateur Open,,M,281.23,190.51,217.72,689.46,SBD,Multi-ply,2
R. Heinen,90,Amateur Open,,M,272.16,170.1,240.4,682.66,SBD,Multi-ply,3
P. DiDonna,90,Amateur Open,,M,272.16,151.95,231.33,655.44,SBD,Multi-ply,4
R. Roschel,90,Amateur Open,,M,181.44,102.06,181.44,464.93,SBD,Multi-ply,5
J. Wolfe,90,Amateur Open,,M,,210.92,,210.92,B,Multi-ply,1
Russ McDonnell,100,Amateur Open,,M,290.3,181.44,217.72,689.4,SBD,Multi-ply,1
John Rooney #1,100,Amateur Open,,M,285.76,176.9,265.35,728.02,SBD,Multi-ply,2
Dave Abramson,125,Amateur Open,,M,294.84,151.95,256.28,703,SBD,Multi-ply,1
Pat Cuntrera,125,Amateur Open,,M,217.72,122.47,204.12,544.31,SBD,Multi-ply,2
Dave Nettles,140,Amateur Open,,M,376.48,170.1,294.84,841.41,SBD,Multi-ply,1
T. Vaughan,140,Amateur Open,,M,272.16,142.88,238.14,653.17,SBD,Multi-ply,2
G. Lester,140+,Amateur Open,,M,317.51,183.7,288.03,789.25,SBD,Multi-ply,1
C. Newman,44,Amateur Open,,F,88.45,49.9,92.99,231.33,SBD,Multi-ply,1
Jenny Burkey,56,Amateur Open,,F,124.74,63.5,120.2,308.44,SBD,Multi-ply,1
B. Heisey,60,Amateur Open,,F,115.67,65.77,145.15,326.59,SBD,Multi-ply,1
B. Powers,60,Amateur Open,,F,120.2,49.9,129.27,299.37,SBD,Multi-ply,2
S. Seaman,67.5,Amateur Open,,F,90.72,47.63,97.52,235.87,SBD,Multi-ply,1
T. Vanella,90,Juniors,20-23,M,181.44,131.54,192.78,505.76,SBD,Multi-ply,1
T. Gall,82.5,Teen 18-19,18-19,M,238.14,113.4,233.6,585.1,SBD,Multi-ply,1
A. Post,90,Teen 16-17,16-17,M,190.51,127.01,235.87,553.3,SBD,Multi-ply,1
J. Yankowy,90,Teen 16-17,16-17,M,181.44,124.74,185.97,492.15,SBD,Multi-ply,2
Carmin Lenzi,100,Teen 18-19,18-19,M,249.48,163.29,242.67,655.44,SBD,Multi-ply,1
Paul Griffith,60,Masters 45-49,45-49,M,192.78,104.33,174.63,471.74,SBD,Multi-ply,1
Joe Liberatore,60,Masters 65-69,65-69,M,136.08,79.38,170.1,385.5,SBD,Multi-ply,1
David Field,60,Masters 75-79,75-79,M,,40.82,74.84,115.67,BD,Multi-ply,1
Russ Dodson,67.5,Masters 55-59,55-59,M,154.22,99.79,185.97,439.98,SBD,Multi-ply,1
G. Lindsey,82.5,Submasters 33-39,33-39,M,201.85,122.47,197.31,521.63,SBD,Multi-ply,1
James Schmuck,82.5,Masters 50-54,50-54,M,231.33,124.74,215.46,571.53,SBD,Multi-ply,1
John Mitsopoulos,82.5,Masters 50-54,50-54,M,,158.76,,158.76,B,Multi-ply,1
Mike Kleinhenz,90,Submasters 33-39,33-39,M,269.89,161.03,269.89,700.8,SBD,Multi-ply,1
Bob Calhoun,90,Submasters 33-39,33-39,M,281.23,190.51,217.72,689.46,SBD,Multi-ply,2
Mike Patton,90,Submasters 33-39,33-39,M,249.48,172.37,265.35,687.19,SBD,Multi-ply,3
R. Roschel,90,Submasters 33-39,33-39,M,181.44,102.06,181.44,464.93,SBD,Multi-ply,4
R. Blaine,90,Masters 40-44,40-44,M,210.92,136.08,215.46,562.45,SBD,Multi-ply,1
M. McDonald,90,Masters 40-44,40-44,M,174.63,115.67,199.58,489.88,SBD,Multi-ply,2
Len Mintus,90,Masters 45-49,45-49,M,299.37,163.29,242.67,705.34,SBD,Multi-ply,1
M. Ellick,90,Masters 45-49,45-49,M,217.72,140.61,195.04,553.38,SBD,Multi-ply,2
B. Rowell Jr,90,Masters 45-49,45-49,M,195.04,129.27,183.7,508.02,SBD,Multi-ply,3
M. Cross,100,Submasters 33-39,33-39,M,292.57,174.63,247.21,714.41,SBD,Multi-ply,1
K. Troublefield,100,Submasters 33-39,33-39,M,254.01,158.76,260.82,673.58,SBD,Multi-ply,2
John Monick,100,Submasters 33-39,33-39,M,158.76,131.54,136.08,426.38,SBD,Multi-ply,3
J. Moyer,100,Masters 40-44,40-44,M,183.7,147.42,204.12,535.24,SBD,Multi-ply,1
J. McAlister,100,Masters 45-49,45-49,M,274.42,167.83,231.33,673.58,SBD,Multi-ply,1
Charles Ziegler,100,Masters 50-54,50-54,M,183.7,136.08,226.8,546.58,SBD,Multi-ply,1
Graham Bartholomew,110,Submasters 33-39,33-39,M,265.35,158.76,285.76,709.87,SBD,Multi-ply,1
Ira Hayes,110,Masters 50-54,50-54,M,158.76,115.67,165.56,439.9,SBD,Multi-ply,1
Paul Eberhardinger,110,Masters 75-79,75-79,M,90.72,49.9,113.4,254.01,SBD,Multi-ply,1
Dave Abramson,125,Submasters 33-39,33-39,M,294.84,151.95,256.28,703,SBD,Multi-ply,1
D. Armstrong,140,Submasters 33-39,33-39,M,181.44,151.95,226.8,560.19,SBD,Multi-ply,1
C. Newman,44,Masters,40-999,M,88.45,49.9,92.99,231.33,SBD,Multi-ply,1
Ellen Chaillet,56,Submasters 33-39,33-39,F,149.69,79.38,149.69,378.75,SBD,Multi-ply,1
S. Shearer,56,Submasters 33-39,33-39,M,74.84,38.56,102.06,215.46,SBD,Multi-ply,2
B. Powers,56,Masters 45-49,45-49,M,120.2,49.9,129.27,299.37,SBD,Multi-ply,1
Doug Heath,60,Pro Open,,M,,,,,SBD,Multi-ply,DQ
Angelo Berardinelli,75,Pro Open,,M,319.78,61.23,274.42,655.4,SBD,Multi-ply,1
Tom Rutigliano,82.5,Pro Open,,M,288.03,190.51,283.5,762.04,SBD,Multi-ply,1
John Wardell,90,Pro Open,,M,317.51,213.19,285.76,816.4,SBD,Multi-ply,1
Joe Dougherty,90,Pro Open,,M,276.69,190.51,213.19,680.3,SBD,Multi-ply,2
G. Tayman,100,Pro Open,,M,353.8,233.6,272.16,859.56,SBD,Multi-ply,1
T. Hasychuk,100,Pro Open,,M,306.17,172.37,294.84,773.37,SBD,Multi-ply,2
Shawn O'Kelley,100,Pro Open,,M,,226.8,,226.8,B,Multi-ply,1
Dave Barno,125,Pro Open,,M,340.19,238.14,328.85,907.18,SBD,Multi-ply,1
C. Smith,125,Pro Open,,M,349.27,217.72,329.99,896.98,SBD,Multi-ply,2
Wardell Sewell,125,Pro Open,,M,319.78,172.37,310.71,802.86,SBD,Multi-ply,3
J. Josza,125,Pro Open,,M,290.3,249.48,,,SBD,Multi-ply,DQ
Antonio DeLeonibus,140,Pro Open,,M,312.98,233.6,328.85,875.43,SBD,Multi-ply,1
C. Cunnigham,140,Pro Open,,M,362.87,192.78,283.5,839.15,SBD,Multi-ply,2
JR Hunt,140+,Pro Open,,M,378.75,272.16,324.32,975.22,SBD,Multi-ply,1
Anthony Clark #1,140+,Pro Open,,M,,,,,SBD,Multi-ply,DQ
Debra Erney,75,Pro Open,,F,201.85,151.95,204.12,557.92,SBD,Multi-ply,1
Tamara Rainwater-Grimwood,82.5,Pro Open,,F,281.23,181.44,190.51,653.1,SBD,Multi-ply,1
P. Sacco,75,Pro Submasters 33-39,33-39,M,254.01,149.69,,,SBD,Multi-ply,DQ
Daniel Pressa,90,Pro Submasters 33-39,33-39,M,263.08,133.81,240.4,637.3,SBD,Multi-ply,1
T. Hasychuk,100,Pro Submasters 33-39,33-39,M,306.17,172.37,294.84,773.37,SBD,Multi-ply,1
Shawn O'Kelley,100,Pro Submasters 33-39,33-39,M,,226.8,,226.8,B,Multi-ply,2
John Black #1,100,Pro Masters 40-44,40-44,M,308.44,154.22,249.48,712.14,SBD,Multi-ply,1
Don Mills,100,Pro Masters 55-59,55-59,M,317.51,154.22,294.84,766.5,SBD,Multi-ply,1
Gary Grosso,110,Pro Submasters 33-39,33-39,M,353.8,206.38,297.1,857.29,SBD,Multi-ply,1
Mark Dimiduk,110,Pro Masters 40-44,40-44,M,362.87,190.51,317.51,870.9,SBD,Multi-ply,1
C. Smith,125,Pro Submasters 33-39,33-39,M,349.27,217.72,329.99,896.98,SBD,Multi-ply,1
Wardell Sewell,125,Pro Submasters 33-39,33-39,M,319.78,172.37,310.71,802.86,SBD,Multi-ply,2
C. Cunnigham,140,Pro Masters 40-44,40-44,M,362.87,192.78,283.5,839.15,SBD,Multi-ply,1
P. Niemandt,140,Pro Masters 40-44,40-44,M,199.58,272.16,226.8,698.53,SBD,Multi-ply,2
JR Hunt,140+,Pro Masters 40-44,40-44,M,378.75,272.16,324.32,975.22,SBD,Multi-ply,1
